<?xml version="1.0" encoding="UTF-8" standalone="no" ?>
<!DOCTYPE svg PUBLIC "-//W3C//DTD SVG 1.1//EN" "http://www.w3.org/Graphics/SVG/1.1/DTD/svg11.dtd">
<svg xmlns="http://www.w3.org/2000/svg" xmlns:xlink="http://www.w3.org/1999/xlink" version="1.1" width="1280" height="1024" viewBox="0 0 1280 1024" xml:space="preserve">
<desc>Created with Fabric.js 3.1.0</desc>
<defs>
</defs>
<g transform="matrix(1.9692780337941629 0 0 1.9692780337941629 640.0153846153846 512.012312418764)" id="background-logo"  >
<rect style="stroke: none; stroke-width: 1; stroke-dasharray: none; stroke-linecap: butt; stroke-dashoffset: 0; stroke-linejoin: miter; stroke-miterlimit: 4; fill: rgb(255,255,255); fill-rule: nonzero; opacity: 1;"  paint-order="stroke"  x="-325" y="-260" rx="0" ry="0" width="650" height="520" />
</g>
<g transform="matrix(1.9692780337941629 0 0 1.9692780337941629 640.0153846153846 365.41036242062813)" style="" id="logo-logo"  >
	<g transform="matrix(3.3073767320636516 0 0 -3.3073767320636516 -11.976967370441457 -49.31748021053693)"  >
<path style="stroke: none; stroke-width: 1; stroke-dasharray: none; stroke-linecap: butt; stroke-dashoffset: 0; stroke-linejoin: miter; stroke-miterlimit: 4; fill: rgb(140,196,68); fill-rule: nonzero; opacity: 1;"  paint-order="stroke"  transform=" translate(-7.680850091071156, -1.302326448370915)" d="M 0 0 C 16.506 -6.155 15.344 1.845 15.344 1.845 C 15.344 1.845 14.576 9.893 0 0" stroke-linecap="round" />
</g>
	<g transform="matrix(3.3073767320636516 0 0 -3.3073767320636516 -19.961612284069076 -108.20423644854074)"  >
<path style="stroke: none; stroke-width: 1; stroke-dasharray: none; stroke-linecap: butt; stroke-dashoffset: 0; stroke-linejoin: miter; stroke-miterlimit: 4; fill: rgb(140,196,68); fill-rule: nonzero; opacity: 1;"  paint-order="stroke"  transform=" translate(-5.4434464479400875, 6.417261890551729)" d="M 0 0 C 3.397 -17.285 9.605 -12.108 9.605 -12.108 C 9.605 -12.108 16.06 -7.24 0 0" stroke-linecap="round" />
</g>
	<g transform="matrix(3.3073767320636516 0 0 -3.3073767320636516 29.942418426103643 -43.3289965253162)"  >
<path style="stroke: none; stroke-width: 1; stroke-dasharray: none; stroke-linecap: butt; stroke-dashoffset: 0; stroke-linejoin: miter; stroke-miterlimit: 4; fill: rgb(140,196,68); fill-rule: nonzero; opacity: 1;"  paint-order="stroke"  transform=" translate(2.392, 0)" d="m 0 0 c 0 -1.321 -1.071 -2.392 -2.392 -2.392 c -1.321 0 -2.392 1.071 -2.392 2.392 c 0 1.321 1.071 2.392 2.392 2.392 C -1.071 2.392 0 1.321 0 0" stroke-linecap="round" />
</g>
	<g transform="matrix(3.3073767320636516 0 0 -3.3073767320636516 44.91362763915549 -19.375061784433285)"  >
<path style="stroke: none; stroke-width: 1; stroke-dasharray: none; stroke-linecap: butt; stroke-dashoffset: 0; stroke-linejoin: miter; stroke-miterlimit: 4; fill: rgb(140,196,68); fill-rule: nonzero; opacity: 1;"  paint-order="stroke"  transform=" translate(2.392, 0)" d="m 0 0 c 0 -1.321 -1.071 -2.392 -2.392 -2.392 c -1.321 0 -2.392 1.071 -2.392 2.392 c 0 1.321 1.071 2.392 2.392 2.392 C -1.071 2.392 0 1.321 0 0" stroke-linecap="round" />
</g>
	<g transform="matrix(3.3073767320636516 0 0 -3.3073767320636516 54.89443378119 8.571195413263467)"  >
<path style="stroke: none; stroke-width: 1; stroke-dasharray: none; stroke-linecap: butt; stroke-dashoffset: 0; stroke-linejoin: miter; stroke-miterlimit: 4; fill: rgb(140,196,68); fill-rule: nonzero; opacity: 1;"  paint-order="stroke"  transform=" translate(2.392, 0)" d="m 0 0 c 0 -1.321 -1.071 -2.392 -2.392 -2.392 c -1.321 0 -2.392 1.071 -2.392 2.392 c 0 1.321 1.071 2.392 2.392 2.392 C -1.071 2.392 0 1.321 0 0" stroke-linecap="round" />
</g>
	<g transform="matrix(3.3073767320636516 0 0 -3.3073767320636516 12.975047984644902 -93.23302723548892)"  >
<path style="stroke: none; stroke-width: 1; stroke-dasharray: none; stroke-linecap: butt; stroke-dashoffset: 0; stroke-linejoin: miter; stroke-miterlimit: 4; fill: rgb(140,196,68); fill-rule: nonzero; opacity: 1;"  paint-order="stroke"  transform=" translate(1.4607871840389755, 1.8937871840389762)" d="m 0 0 c 1.046 -0.807 1.24 -2.309 0.433 -3.355 c -0.807 -1.046 -2.309 -1.239 -3.355 -0.433 c -1.046 0.807 -1.239 2.309 -0.433 3.355 C -2.548 0.613 -1.046 0.807 0 0" stroke-linecap="round" />
</g>
	<g transform="matrix(3.3073767320636516 0 0 -3.3073767320636516 41.9193857965451 -93.23302723548892)"  >
<path style="stroke: none; stroke-width: 1; stroke-dasharray: none; stroke-linecap: butt; stroke-dashoffset: 0; stroke-linejoin: miter; stroke-miterlimit: 4; fill: rgb(140,196,68); fill-rule: nonzero; opacity: 1;"  paint-order="stroke"  transform=" translate(1.4607871840389755, 1.8937871840389762)" d="m 0 0 c 1.046 -0.807 1.24 -2.309 0.433 -3.355 c -0.807 -1.046 -2.309 -1.239 -3.355 -0.433 c -1.046 0.807 -1.239 2.309 -0.433 3.355 C -2.548 0.613 -1.046 0.807 0 0" stroke-linecap="round" />
</g>
	<g transform="matrix(3.3073767320636516 0 0 -3.3073767320636516 69.86564299424185 -86.24646293606475)"  >
<path style="stroke: none; stroke-width: 1; stroke-dasharray: none; stroke-linecap: butt; stroke-dashoffset: 0; stroke-linejoin: miter; stroke-miterlimit: 4; fill: rgb(140,196,68); fill-rule: nonzero; opacity: 1;"  paint-order="stroke"  transform=" translate(1.4606356015513229, 1.8937871840389762)" d="m 0 0 c 1.046 -0.807 1.24 -2.309 0.433 -3.355 c -0.807 -1.046 -2.309 -1.239 -3.355 -0.433 c -1.045 0.807 -1.239 2.309 -0.433 3.355 C -2.548 0.613 -1.046 0.807 0 0" stroke-linecap="round" />
</g>
	<g transform="matrix(3.3073767320636516 0 0 -3.3073767320636516 99.8080614203455 -71.27525372301292)"  >
<path style="stroke: none; stroke-width: 1; stroke-dasharray: none; stroke-linecap: butt; stroke-dashoffset: 0; stroke-linejoin: miter; stroke-miterlimit: 4; fill: rgb(140,196,68); fill-rule: nonzero; opacity: 1;"  paint-order="stroke"  transform=" translate(1.4607871840389755, 1.8937871840389762)" d="m 0 0 c 1.046 -0.807 1.24 -2.309 0.433 -3.355 c -0.807 -1.046 -2.309 -1.239 -3.355 -0.433 c -1.046 0.807 -1.239 2.309 -0.433 3.355 C -2.548 0.613 -1.046 0.807 0 0" stroke-linecap="round" />
</g>
	<g transform="matrix(3.3073767320636516 0 0 -3.3073767320636516 0 15.557759712687641)"  >
<path style="stroke: none; stroke-width: 1; stroke-dasharray: none; stroke-linecap: butt; stroke-dashoffset: 0; stroke-linejoin: miter; stroke-miterlimit: 4; fill: rgb(140,196,68); fill-rule: nonzero; opacity: 1;"  paint-order="stroke"  transform=" translate(35.729499999999994, 12.669665629865356)" d="m 0 0 c -2.401 4.245 -5.552 7.643 -9.451 10.194 c -3.842 2.52 -7.832 4.245 -11.972 5.176 c -4.14 0.929 -8.026 1.395 -11.657 1.395 h -8.965 c -1.361 0 -2.607 0.692 -3.394 1.803 c -2.445 3.449 -9.465 6.453 -29.62 -4.257 c 20.305 -10.181 27.283 -7.091 29.678 -3.605 c 0.794 1.155 2.058 1.896 3.458 1.896 c 0 0 5.812 0.067 6.863 0.067 c 3.3 0 6.248 -0.675 8.844 -2.025 c 2.595 -1.35 4.763 -3.256 6.503 -5.716 c 1.739 -2.46 3.061 -5.431 3.961 -8.911 c 0.9 -3.481 1.35 -7.336 1.35 -11.567 c 0 -4.32 -0.338 -8.139 -1.013 -11.454 c -0.675 -3.316 -1.748 -6.174 -3.218 -8.573 c -1.5 -2.431 -3.465 -4.276 -5.895 -5.536 c -2.431 -1.26 -5.342 -1.891 -8.731 -1.891 c -1.621 0 -2.934 0.173 -3.939 0.518 c -1.005 0.345 -1.853 0.833 -2.543 1.463 c -0.69 0.63 -1.177 1.357 -1.462 2.182 c -0.286 0.826 -0.428 1.778 -0.428 2.858 V 0.928 c -1.975 0.418 -4.171 1.075 -6.638 1.994 l -3.166 1.181 c -0.584 -0.054 -1.182 -0.091 -1.808 -0.091 h -0.002 c -1.344 0.001 -2.808 0.147 -4.363 0.407 v -42.607 c 0 -1.08 -0.21 -2.003 -0.63 -2.768 c -0.421 -0.765 -1.17 -1.372 -2.25 -1.822 c -0.481 -0.211 -1.441 -0.391 -2.881 -0.54 c -1.44 -0.151 -2.64 -0.241 -3.6 -0.271 v -3.51 h 32.179 c 5.011 0 9.804 0.622 14.38 1.868 c 4.574 1.244 8.663 3.142 12.264 5.693 c 3.54 2.55 6.382 5.828 8.528 9.834 c 2.145 4.005 3.218 8.709 3.218 14.109 C 3.6 -9.444 2.4 -4.246 0 0" stroke-linecap="round" />
</g>
</g>
<g transform="matrix(1.9692780337941629 0 0 1.9692780337941629 641.9269689567825 732.3214130095574)" id="text-logo-path"  >
<path style="stroke: rgb(84,84,85); stroke-width: 0; stroke-dasharray: none; stroke-linecap: butt; stroke-dashoffset: 0; stroke-linejoin: miter; stroke-miterlimit: 4; fill: rgb(141,197,64); fill-rule: nonzero; opacity: 1;"  paint-order="stroke"  transform=" translate(-125.115, 19.035)" d="M 21.11 0 L 4.27 0 L 4.27 -38.04 L 21.11 -38.09 Q 21.19 -38.09 21.27 -38.09 L 21.27 -38.09 Q 25.79 -38.12 29.53 -36.7 L 29.53 -36.7 Q 33.33 -35.27 35.88 -32.73 Q 38.42 -30.19 39.81 -26.69 Q 41.21 -23.19 41.21 -19.09 L 41.21 -19.09 Q 41.21 -13.59 38.68 -9.24 Q 36.15 -4.89 31.55 -2.45 Q 26.96 0 21.11 0 L 21.11 0 Z M 13.45 -29.56 L 13.45 -8.5 L 21.11 -8.5 Q 25.92 -8.5 28.92 -11.42 Q 31.91 -14.33 31.91 -19.09 L 31.91 -19.09 Q 31.91 -24.12 29 -26.84 Q 26.09 -29.56 21.11 -29.56 L 21.11 -29.56 L 13.45 -29.56 Z M 45.2 -19.03 L 45.2 -19.03 Q 45.2 -23.02 46.74 -26.66 Q 48.29 -30.3 50.91 -32.95 Q 53.54 -35.6 57.18 -37.17 Q 60.81 -38.75 64.83 -38.75 L 64.83 -38.75 Q 68.8 -38.75 72.45 -37.17 Q 76.1 -35.6 78.72 -32.95 Q 81.35 -30.3 82.92 -26.65 Q 84.49 -23 84.49 -19.03 L 84.49 -19.03 Q 84.49 -15.04 82.93 -11.39 Q 81.38 -7.74 78.74 -5.1 Q 76.1 -2.46 72.45 -0.89 Q 68.8 0.68 64.83 0.68 L 64.83 0.68 Q 59.47 0.68 54.95 -1.97 Q 50.42 -4.62 47.81 -9.15 Q 45.2 -13.67 45.2 -19.03 Z M 53.59 -19.03 L 53.59 -19.03 Q 53.59 -14.38 56.89 -11.12 Q 60.18 -7.85 64.83 -7.85 L 64.83 -7.85 Q 69.43 -7.85 72.71 -11.12 Q 75.99 -14.38 75.99 -19.03 L 75.99 -19.03 Q 75.99 -23.63 72.71 -26.91 Q 69.43 -30.19 64.83 -30.19 L 64.83 -30.19 Q 60.18 -30.19 56.89 -26.92 Q 53.59 -23.65 53.59 -19.03 Z M 99.2 0 L 89.96 0 L 89.96 -38.09 L 99.2 -38.09 L 118.48 -14.85 L 118.48 -38.09 L 127.72 -38.09 L 127.72 0 L 118.48 0 L 99.2 -23.3 L 99.2 0 Z M 164.88 0 L 135.71 0 L 135.71 -38.09 L 164.88 -38.09 L 164.88 -29.56 L 144.89 -29.56 L 144.89 -23.02 L 161.57 -23.02 L 161.57 -15.07 L 144.89 -15.07 L 144.89 -8.5 L 164.88 -8.5 L 164.88 0 Z M 172.76 -6.78 L 169.72 -15.29 L 188.56 -38.09 L 197.86 -38.09 L 197.86 -15.29 L 204.61 -15.29 L 204.61 -6.78 L 197.86 -6.78 L 197.86 0 L 188.56 0 L 188.56 -6.78 L 172.76 -6.78 Z M 188.56 -26.88 L 179.02 -15.29 L 188.56 -15.29 L 188.56 -26.88 Z M 209.21 -19.55 L 209.21 -19.55 L 209.21 -38.09 L 218.39 -38.09 L 218.39 -19.55 Q 218.39 -14 220.72 -10.92 Q 223.04 -7.85 227.36 -7.85 L 227.36 -7.85 Q 231.66 -7.85 234.16 -10.96 Q 236.66 -14.08 236.66 -19.55 L 236.66 -19.55 L 236.66 -38.09 L 245.96 -38.09 L 245.96 -19.55 Q 245.96 -14.9 244.55 -11.07 Q 243.14 -7.25 240.65 -4.69 Q 238.16 -2.13 234.76 -0.72 Q 231.36 0.68 227.36 0.68 L 227.36 0.68 Q 219.16 0.68 214.18 -4.76 Q 209.21 -10.2 209.21 -19.55 Z" stroke-linecap="round" />
</g>
</svg>