{
  "appId": "ca.done4u.client",
  "appName": "Done4u",
  "bundledWebRuntime": false,
  "npmClient": "yarn",
  "webDir": "www",
  "plugins": {
    "SplashScreen": {
      "launchShowDuration": 0
    }
  },
  "cordova": {},
  "linuxAndroidStudioPath": "/opt/android-studio/bin/studio.sh"
}
